original_meshes:
    - filename:            E:/Projects/MDP/faceblending/samples/models/GabrielJesus_lap_00000.xyz
    - filename:            E:/Projects/MDP/faceblending/samples/models/Paulinho_lap_00000.xyz
smoothed_meshes:
    - filename:            E:/Projects/MDP/faceblending/samples/models/GabrielJesus_lap_20000.xyz
    - filename:            E:/Projects/MDP/faceblending/samples/models/Paulinho_lap_20000.xyz
polyfit:
    - filename:            E:/Projects/MDP/faceblending/samples/models/GabrielJesus_lap.poly
    - filename:            E:/Projects/MDP/faceblending/samples/models/Paulinho_lap.poly
textures:
    - texture:             E:/Projects/MDP/faceblending/samples/models/GabrielJesus.png
    - texture:             E:/Projects/MDP/faceblending/samples/models/Paulinho.png
thumbnails:
    - thumbnail:           E:/Projects/MDP/faceblending/samples/images/thumb_GabrielJesus.png
      pos_x:               0.0
      pos_y:               1.0
    - thumbnail:           E:/Projects/MDP/faceblending/samples/images/thumb_Paulinho.png
      pos_x:               0.0
      pos_y:               -1.0        
parameters:
    normal_mesh:           E:/Projects/MDP/faceblending/samples/models/Face.nor
    uv_mesh:               E:/Projects/MDP/faceblending/samples/models/Face.uv
    tri_mesh:              E:/Projects/MDP/faceblending/samples/models/Face.tri
    mask_texture:          E:/Projects/MDP/faceblending/samples/models/mask_single_region.tga
interface:
    mask_weight_x:         1.0 
    mask_weight_y:         1.0
    mask_weight_z:         1.0
    mouse_pos_0_x:         0.0 
    mouse_pos_0_y:         1.0
    mouse_pos_1_x:         0.0 
    mouse_pos_1_y:         1.0
    mouse_pos_2_x:         0.0 
    mouse_pos_2_y:         1.0
    curve_interpolation:   true
