original_meshes:
    - filename:            E:/Projects/MDP/faceblending/samples/models/Fig02_lap_0.xyz
    - filename:            E:/Projects/MDP/faceblending/samples/models/GabrielJesus_lap_0.xyz
    - filename:            E:/Projects/MDP/faceblending/samples/models/Firmino_lap_0.xyz
    - filename:            E:/Projects/MDP/faceblending/samples/models/Fig05_lap_0.xyz
smoothed_meshes:
    - filename:            E:/Projects/MDP/faceblending/samples/models/Fig02_lap_20000.xyz
    - filename:            E:/Projects/MDP/faceblending/samples/models/GabrielJesus_lap_20000.xyz
    - filename:            E:/Projects/MDP/faceblending/samples/models/Firmino_lap_20000.xyz
    - filename:            E:/Projects/MDP/faceblending/samples/models/Fig05_lap_20000.xyz
textures:
    - texture:             E:/Projects/MDP/faceblending/samples/models/fig02.png
    - texture:             E:/Projects/MDP/faceblending/samples/models/GabrielJesus.png
    - texture:             E:/Projects/MDP/faceblending/samples/models/Firmino.png
    - texture:             E:/Projects/MDP/faceblending/samples/models/fig05.png
thumbnails:
    - thumbnail:           E:/Projects/MDP/faceblending/samples/images/thumb_Fig02.png
      pos_x:               0.0
      pos_y:               1.0
    - thumbnail:           E:/Projects/MDP/faceblending/samples/images/thumb_GabrielJesus.png
      pos_x:               0.0
      pos_y:               -1.0    
    - thumbnail:           E:/Projects/MDP/faceblending/samples/images/thumb_Firmino.png
      pos_x:               -1.0
      pos_y:               0.0    
    - thumbnail:           E:/Projects/MDP/faceblending/samples/images/thumb_Fig05.png    
      pos_x:               1.0
      pos_y:               0.0     
parameters:
    normal_mesh:           E:/Projects/MDP/faceblending/samples/models/Face.nor
    uv_mesh:               E:/Projects/MDP/faceblending/samples/models/Face.uv
    tri_mesh:              E:/Projects/MDP/faceblending/samples/models/Face.tri
    mask_texture:          E:/Projects/MDP/faceblending/samples/models/mask.tga
    